%YAML 1.1
%TAG !u! tag:unity3d.com,2011:
--- !u!114 &11400000
MonoBehaviour:
  m_ObjectHideFlags: 0
  m_CorrespondingSourceObject: {fileID: 0}
  m_PrefabInstance: {fileID: 0}
  m_PrefabAsset: {fileID: 0}
  m_GameObject: {fileID: 0}
  m_Enabled: 1
  m_EditorHideFlags: 0
  m_Script: {fileID: 11500000, guid: b8ea131e65f57284a9c7fe1e301d5eed, type: 3}
  m_Name: Backgrounds
  m_EditorClassIdentifier: 
  backgrounds:
  - {fileID: 21300000, guid: 6fc2e654d86d58244935d0a9f6df57c3, type: 3}
  - {fileID: 21300000, guid: 5ef969a1ba82b1c4a80c25346fbf5ca8, type: 3}
