[api-updater (non-obsolete-error-filter)] 19.08.2021 14:32:15 : Starting E:/Unity/Editor/Data/Tools/ScriptUpdater/APIUpdater.NonObsoleteApiUpdaterDetector.exe
[api-updater (non-obsolete-error-filter)] 
----------------------------------
jit/startup time      : 880ms
moved types parse time: 141ms
candidates parse time : 16ms
C# parse time         : 542ms
candidates check time : 55ms
console write time    : 1ms

[api-updater (non-obsolete-error-filter)] 23.08.2021 16:26:44 : Starting E:/Unity/Editor/Data/Tools/ScriptUpdater/APIUpdater.NonObsoleteApiUpdaterDetector.exe
[api-updater (non-obsolete-error-filter)] 
----------------------------------
jit/startup time      : 766,3064ms
moved types parse time: 95ms
candidates parse time : 1ms
C# parse time         : 536ms
candidates check time : 31ms
console write time    : 1ms

[api-updater (non-obsolete-error-filter)] 23.08.2021 16:51:35 : Starting E:/Unity/Editor/Data/Tools/ScriptUpdater/APIUpdater.NonObsoleteApiUpdaterDetector.exe
[api-updater (non-obsolete-error-filter)] 
----------------------------------
jit/startup time      : 86,0086ms
moved types parse time: 74ms
candidates parse time : 4ms
C# parse time         : 242ms
candidates check time : 54ms
console write time    : 0ms

[api-updater (non-obsolete-error-filter)] 31.08.2021 15:54:17 : Starting E:/Unity/Editor/Data/Tools/ScriptUpdater/APIUpdater.NonObsoleteApiUpdaterDetector.exe
[api-updater (non-obsolete-error-filter)] 
----------------------------------
jit/startup time      : 640,0366ms
moved types parse time: 156ms
candidates parse time : 1ms
C# parse time         : 602ms
candidates check time : 56ms
console write time    : 14ms

[api-updater (non-obsolete-error-filter)] 31.08.2021 15:54:25 : Starting E:/Unity/Editor/Data/Tools/ScriptUpdater/APIUpdater.NonObsoleteApiUpdaterDetector.exe
[api-updater (non-obsolete-error-filter)] 
----------------------------------
jit/startup time      : 133,0076ms
moved types parse time: 69ms
candidates parse time : 1ms
C# parse time         : 196ms
candidates check time : 42ms
console write time    : 0ms

[api-updater (non-obsolete-error-filter)] 31.08.2021 15:54:36 : Starting E:/Unity/Editor/Data/Tools/ScriptUpdater/APIUpdater.NonObsoleteApiUpdaterDetector.exe
[api-updater (non-obsolete-error-filter)] 
----------------------------------
jit/startup time      : 107,0061ms
moved types parse time: 77ms
candidates parse time : 1ms
C# parse time         : 236ms
candidates check time : 55ms
console write time    : 0ms

[api-updater (non-obsolete-error-filter)] 01.09.2021 10:11:47 : Starting E:/Unity/Editor/Data/Tools/ScriptUpdater/APIUpdater.NonObsoleteApiUpdaterDetector.exe
[api-updater (non-obsolete-error-filter)] 
----------------------------------
jit/startup time      : 747,0747ms
moved types parse time: 113ms
candidates parse time : 18ms
C# parse time         : 547ms
candidates check time : 44ms
console write time    : 1ms

[api-updater (non-obsolete-error-filter)] 01.09.2021 15:46:31 : Starting E:/Unity/Editor/Data/Tools/ScriptUpdater/APIUpdater.NonObsoleteApiUpdaterDetector.exe
[api-updater (non-obsolete-error-filter)] 
----------------------------------
jit/startup time      : 123,0123ms
moved types parse time: 81ms
candidates parse time : 1ms
C# parse time         : 272ms
candidates check time : 58ms
console write time    : 0ms

[api-updater (non-obsolete-error-filter)] 01.09.2021 15:51:18 : Starting E:/Unity/Editor/Data/Tools/ScriptUpdater/APIUpdater.NonObsoleteApiUpdaterDetector.exe
[api-updater (non-obsolete-error-filter)] 
----------------------------------
jit/startup time      : 70,007ms
moved types parse time: 71ms
candidates parse time : 1ms
C# parse time         : 183ms
candidates check time : 44ms
console write time    : 0ms

[api-updater (non-obsolete-error-filter)] 01.09.2021 20:44:45 : Starting C:/Program Files/Unity/2020.3.16f1/Editor/Data/Tools/ScriptUpdater/APIUpdater.NonObsoleteApiUpdaterDetector.exe
[api-updater (non-obsolete-error-filter)] 
----------------------------------
jit/startup time      : 757,0433ms
moved types parse time: 346ms
candidates parse time : 3ms
C# parse time         : 1066ms
candidates check time : 152ms
console write time    : 2ms

[api-updater (non-obsolete-error-filter)] 02.09.2021 17:31:42 : Starting E:/Unity/Editor/Data/Tools/ScriptUpdater/APIUpdater.NonObsoleteApiUpdaterDetector.exe
[api-updater (non-obsolete-error-filter)] 
----------------------------------
jit/startup time      : 919ms
moved types parse time: 137ms
candidates parse time : 12ms
C# parse time         : 579ms
candidates check time : 46ms
console write time    : 0ms

[api-updater (non-obsolete-error-filter)] 02.09.2021 17:31:48 : Starting E:/Unity/Editor/Data/Tools/ScriptUpdater/APIUpdater.NonObsoleteApiUpdaterDetector.exe
[api-updater (non-obsolete-error-filter)] 
----------------------------------
jit/startup time      : 82ms
moved types parse time: 139ms
candidates parse time : 635ms
C# parse time         : 159ms
candidates check time : 46ms
console write time    : 0ms

[api-updater (non-obsolete-error-filter)] 02.09.2021 17:31:58 : Starting E:/Unity/Editor/Data/Tools/ScriptUpdater/APIUpdater.NonObsoleteApiUpdaterDetector.exe
[api-updater (non-obsolete-error-filter)] 
----------------------------------
jit/startup time      : 84ms
moved types parse time: 78ms
candidates parse time : 1ms
C# parse time         : 285ms
candidates check time : 41ms
console write time    : 0ms

[api-updater (non-obsolete-error-filter)] 03.09.2021 14:27:39 : Starting E:/Unity/Editor/Data/Tools/ScriptUpdater/APIUpdater.NonObsoleteApiUpdaterDetector.exe
[api-updater (non-obsolete-error-filter)] 
----------------------------------
jit/startup time      : 804ms
moved types parse time: 131ms
candidates parse time : 1ms
C# parse time         : 568ms
candidates check time : 47ms
console write time    : 0ms

[api-updater (non-obsolete-error-filter)] 03.09.2021 14:28:04 : Starting E:/Unity/Editor/Data/Tools/ScriptUpdater/APIUpdater.NonObsoleteApiUpdaterDetector.exe
[api-updater (non-obsolete-error-filter)] 
----------------------------------
jit/startup time      : 187ms
moved types parse time: 88ms
candidates parse time : 5ms
C# parse time         : 253ms
candidates check time : 81ms
console write time    : 0ms

[api-updater (non-obsolete-error-filter)] 03.09.2021 14:28:07 : Starting E:/Unity/Editor/Data/Tools/ScriptUpdater/APIUpdater.NonObsoleteApiUpdaterDetector.exe
[api-updater (non-obsolete-error-filter)] 
----------------------------------
jit/startup time      : 83ms
moved types parse time: 73ms
candidates parse time : 1ms
C# parse time         : 185ms
candidates check time : 33ms
console write time    : 0ms

[api-updater (non-obsolete-error-filter)] 03.09.2021 14:33:33 : Starting E:/Unity/Editor/Data/Tools/ScriptUpdater/APIUpdater.NonObsoleteApiUpdaterDetector.exe
[api-updater (non-obsolete-error-filter)] 
----------------------------------
jit/startup time      : 82ms
moved types parse time: 93ms
candidates parse time : 1ms
C# parse time         : 263ms
candidates check time : 54ms
console write time    : 0ms

[api-updater (non-obsolete-error-filter)] 03.09.2021 14:33:52 : Starting E:/Unity/Editor/Data/Tools/ScriptUpdater/APIUpdater.NonObsoleteApiUpdaterDetector.exe
[api-updater (non-obsolete-error-filter)] 
----------------------------------
jit/startup time      : 99ms
moved types parse time: 84ms
candidates parse time : 1ms
C# parse time         : 239ms
candidates check time : 51ms
console write time    : 0ms

[api-updater (non-obsolete-error-filter)] 03.09.2021 14:34:32 : Starting E:/Unity/Editor/Data/Tools/ScriptUpdater/APIUpdater.NonObsoleteApiUpdaterDetector.exe
[api-updater (non-obsolete-error-filter)] 
----------------------------------
jit/startup time      : 93ms
moved types parse time: 71ms
candidates parse time : 1ms
C# parse time         : 233ms
candidates check time : 34ms
console write time    : 0ms

[api-updater (non-obsolete-error-filter)] 03.09.2021 14:34:45 : Starting E:/Unity/Editor/Data/Tools/ScriptUpdater/APIUpdater.NonObsoleteApiUpdaterDetector.exe
[api-updater (non-obsolete-error-filter)] 
----------------------------------
jit/startup time      : 92ms
moved types parse time: 97ms
candidates parse time : 2ms
C# parse time         : 206ms
candidates check time : 30ms
console write time    : 0ms

[api-updater (non-obsolete-error-filter)] 07.09.2021 17:00:49 : Starting E:/Unity/Editor/Data/Tools/ScriptUpdater/APIUpdater.NonObsoleteApiUpdaterDetector.exe
[api-updater (non-obsolete-error-filter)] 
----------------------------------
jit/startup time      : 749,0749ms
moved types parse time: 134ms
candidates parse time : 1ms
C# parse time         : 562ms
candidates check time : 62ms
console write time    : 1ms

[api-updater (non-obsolete-error-filter)] 07.09.2021 17:03:44 : Starting E:/Unity/Editor/Data/Tools/ScriptUpdater/APIUpdater.NonObsoleteApiUpdaterDetector.exe
[api-updater (non-obsolete-error-filter)] 
----------------------------------
jit/startup time      : 134,0134ms
moved types parse time: 96ms
candidates parse time : 1ms
C# parse time         : 246ms
candidates check time : 51ms
console write time    : 0ms

[api-updater (non-obsolete-error-filter)] 07.09.2021 17:45:04 : Starting E:/Unity/Editor/Data/Tools/ScriptUpdater/APIUpdater.NonObsoleteApiUpdaterDetector.exe
[api-updater (non-obsolete-error-filter)] 
----------------------------------
jit/startup time      : 77,0077ms
moved types parse time: 100ms
candidates parse time : 31ms
C# parse time         : 274ms
candidates check time : 67ms
console write time    : 0ms

[api-updater (non-obsolete-error-filter)] 08.09.2021 11:26:35 : Starting E:/Unity/Editor/Data/Tools/ScriptUpdater/APIUpdater.NonObsoleteApiUpdaterDetector.exe
[api-updater (non-obsolete-error-filter)] 
----------------------------------
jit/startup time      : 681ms
moved types parse time: 140ms
candidates parse time : 1ms
C# parse time         : 554ms
candidates check time : 61ms
console write time    : 1ms

[api-updater (non-obsolete-error-filter)] 08.09.2021 15:07:26 : Starting E:/Unity/Editor/Data/Tools/ScriptUpdater/APIUpdater.NonObsoleteApiUpdaterDetector.exe
[api-updater (non-obsolete-error-filter)] 
----------------------------------
jit/startup time      : 87ms
moved types parse time: 85ms
candidates parse time : 1ms
C# parse time         : 265ms
candidates check time : 46ms
console write time    : 0ms

[api-updater (non-obsolete-error-filter)] 08.09.2021 15:57:39 : Starting E:/Unity/Editor/Data/Tools/ScriptUpdater/APIUpdater.NonObsoleteApiUpdaterDetector.exe
[api-updater (non-obsolete-error-filter)] 
----------------------------------
jit/startup time      : 86ms
moved types parse time: 90ms
candidates parse time : 22ms
C# parse time         : 290ms
candidates check time : 46ms
console write time    : 0ms

[api-updater (non-obsolete-error-filter)] 08.09.2021 15:57:48 : Starting E:/Unity/Editor/Data/Tools/ScriptUpdater/APIUpdater.NonObsoleteApiUpdaterDetector.exe
[api-updater (non-obsolete-error-filter)] 
----------------------------------
jit/startup time      : 97ms
moved types parse time: 100ms
candidates parse time : 1ms
C# parse time         : 250ms
candidates check time : 32ms
console write time    : 0ms

[api-updater (non-obsolete-error-filter)] 09.09.2021 10:25:39 : Starting E:/Unity/Editor/Data/Tools/ScriptUpdater/APIUpdater.NonObsoleteApiUpdaterDetector.exe
[api-updater (non-obsolete-error-filter)] 
----------------------------------
jit/startup time      : 820ms
moved types parse time: 136ms
candidates parse time : 15ms
C# parse time         : 535ms
candidates check time : 38ms
console write time    : 1ms

[api-updater (non-obsolete-error-filter)] 09.09.2021 10:28:21 : Starting E:/Unity/Editor/Data/Tools/ScriptUpdater/APIUpdater.NonObsoleteApiUpdaterDetector.exe
[api-updater (non-obsolete-error-filter)] 
----------------------------------
jit/startup time      : 108ms
moved types parse time: 83ms
candidates parse time : 1ms
C# parse time         : 238ms
candidates check time : 39ms
console write time    : 0ms

[api-updater (non-obsolete-error-filter)] 09.09.2021 10:42:18 : Starting E:/Unity/Editor/Data/Tools/ScriptUpdater/APIUpdater.NonObsoleteApiUpdaterDetector.exe
[api-updater (non-obsolete-error-filter)] 
----------------------------------
jit/startup time      : 79ms
moved types parse time: 75ms
candidates parse time : 1ms
C# parse time         : 185ms
candidates check time : 30ms
console write time    : 0ms

[api-updater (non-obsolete-error-filter)] 09.09.2021 10:42:41 : Starting E:/Unity/Editor/Data/Tools/ScriptUpdater/APIUpdater.NonObsoleteApiUpdaterDetector.exe
[api-updater (non-obsolete-error-filter)] 
----------------------------------
jit/startup time      : 133ms
moved types parse time: 82ms
candidates parse time : 1ms
C# parse time         : 186ms
candidates check time : 29ms
console write time    : 0ms

[api-updater (non-obsolete-error-filter)] 09.09.2021 11:56:06 : Starting E:/Unity/Editor/Data/Tools/ScriptUpdater/APIUpdater.NonObsoleteApiUpdaterDetector.exe
[api-updater (non-obsolete-error-filter)] 
----------------------------------
jit/startup time      : 703ms
moved types parse time: 148ms
candidates parse time : 1ms
C# parse time         : 649ms
candidates check time : 57ms
console write time    : 11ms

[api-updater (non-obsolete-error-filter)] 10.09.2021 11:20:50 : Starting E:/Unity/Editor/Data/Tools/ScriptUpdater/APIUpdater.NonObsoleteApiUpdaterDetector.exe
[api-updater (non-obsolete-error-filter)] 
----------------------------------
jit/startup time      : 750ms
moved types parse time: 111ms
candidates parse time : 1ms
C# parse time         : 594ms
candidates check time : 73ms
console write time    : 8ms

[api-updater (non-obsolete-error-filter)] 10.09.2021 11:53:22 : Starting E:/Unity/Editor/Data/Tools/ScriptUpdater/APIUpdater.NonObsoleteApiUpdaterDetector.exe
[api-updater (non-obsolete-error-filter)] 
----------------------------------
jit/startup time      : 76,0076ms
moved types parse time: 76ms
candidates parse time : 7ms
C# parse time         : 199ms
candidates check time : 34ms
console write time    : 0ms

[api-updater (non-obsolete-error-filter)] 10.09.2021 11:53:31 : Starting E:/Unity/Editor/Data/Tools/ScriptUpdater/APIUpdater.NonObsoleteApiUpdaterDetector.exe
[api-updater (non-obsolete-error-filter)] 
----------------------------------
jit/startup time      : 93,0093ms
moved types parse time: 94ms
candidates parse time : 6ms
C# parse time         : 248ms
candidates check time : 46ms
console write time    : 0ms

[api-updater (non-obsolete-error-filter)] 10.09.2021 12:01:11 : Starting E:/Unity/Editor/Data/Tools/ScriptUpdater/APIUpdater.NonObsoleteApiUpdaterDetector.exe
[api-updater (non-obsolete-error-filter)] 
----------------------------------
jit/startup time      : 80,008ms
moved types parse time: 82ms
candidates parse time : 1ms
C# parse time         : 235ms
candidates check time : 43ms
console write time    : 0ms

[api-updater (non-obsolete-error-filter)] 10.09.2021 14:38:29 : Starting E:/Unity/Editor/Data/Tools/ScriptUpdater/APIUpdater.NonObsoleteApiUpdaterDetector.exe
[api-updater (non-obsolete-error-filter)] 
----------------------------------
jit/startup time      : 824ms
moved types parse time: 145ms
candidates parse time : 12ms
C# parse time         : 550ms
candidates check time : 33ms
console write time    : 1ms

[api-updater (non-obsolete-error-filter)] 10.09.2021 14:38:37 : Starting E:/Unity/Editor/Data/Tools/ScriptUpdater/APIUpdater.NonObsoleteApiUpdaterDetector.exe
[api-updater (non-obsolete-error-filter)] 
----------------------------------
jit/startup time      : 163ms
moved types parse time: 76ms
candidates parse time : 1ms
C# parse time         : 289ms
candidates check time : 38ms
console write time    : 0ms

[api-updater (non-obsolete-error-filter)] 10.09.2021 14:39:06 : Starting E:/Unity/Editor/Data/Tools/ScriptUpdater/APIUpdater.NonObsoleteApiUpdaterDetector.exe
[api-updater (non-obsolete-error-filter)] 
----------------------------------
jit/startup time      : 80ms
moved types parse time: 71ms
candidates parse time : 1ms
C# parse time         : 247ms
candidates check time : 32ms
console write time    : 0ms

[api-updater (non-obsolete-error-filter)] 10.09.2021 16:30:02 : Starting E:/Unity/Editor/Data/Tools/ScriptUpdater/APIUpdater.NonObsoleteApiUpdaterDetector.exe
[api-updater (non-obsolete-error-filter)] 
----------------------------------
jit/startup time      : 88ms
moved types parse time: 93ms
candidates parse time : 1ms
C# parse time         : 269ms
candidates check time : 38ms
console write time    : 0ms

[api-updater (non-obsolete-error-filter)] 10.09.2021 16:35:23 : Starting E:/Unity/Editor/Data/Tools/ScriptUpdater/APIUpdater.NonObsoleteApiUpdaterDetector.exe
[api-updater (non-obsolete-error-filter)] 
----------------------------------
jit/startup time      : 103ms
moved types parse time: 137ms
candidates parse time : 6ms
C# parse time         : 302ms
candidates check time : 43ms
console write time    : 0ms

[api-updater (non-obsolete-error-filter)] 12.09.2021 11:20:46 : Starting C:/Program Files/Unity/2020.3.16f1/Editor/Data/Tools/ScriptUpdater/APIUpdater.NonObsoleteApiUpdaterDetector.exe
[api-updater (non-obsolete-error-filter)] Exception caught while loading types from C:\Users\-\UnityProjects\mathduel\Library\ScriptAssemblies\Unity.TextMeshPro.Editor.dll (some types may not be loaded)
	Exception of type 'System.Reflection.ReflectionTypeLoadException' was thrown.
	  at (wrapper managed-to-native) System.Reflection.Assembly.GetTypes(System.Reflection.Assembly,bool)
  at System.Reflection.Assembly.GetTypes () [0x00000] in <695d1cc93cca45069c528c15c9fdd749>:0 
  at APIUpdater.NonObsoleteApiUpdaterDetector.ExtraInfoParser+<LoadTypesWithMovedFromAttributeAsync>d__3.MoveNext () [0x000c8] in <68bff7873e0e4aa69a14dfc30bebbe3e>:0 
	Could not load file or assembly 'UnityEditor.CoreModule, Version=0.0.0.0, Culture=neutral, PublicKeyToken=null' or one of its dependencies.

[api-updater (non-obsolete-error-filter)] 
----------------------------------
jit/startup time      : 380,0217ms
moved types parse time: 271ms
candidates parse time : 3ms
C# parse time         : 1243ms
candidates check time : 124ms
console write time    : 2ms

[api-updater (non-obsolete-error-filter)] 12.09.2021 12:01:40 : Starting C:/Program Files/Unity/2020.3.16f1/Editor/Data/Tools/ScriptUpdater/APIUpdater.NonObsoleteApiUpdaterDetector.exe
[api-updater (non-obsolete-error-filter)] 
----------------------------------
jit/startup time      : 200,0115ms
moved types parse time: 172ms
candidates parse time : 3ms
C# parse time         : 719ms
candidates check time : 156ms
console write time    : 1ms

[api-updater (non-obsolete-error-filter)] 12.09.2021 12:08:44 : Starting C:/Program Files/Unity/2020.3.16f1/Editor/Data/Tools/ScriptUpdater/APIUpdater.NonObsoleteApiUpdaterDetector.exe
[api-updater (non-obsolete-error-filter)] 
----------------------------------
jit/startup time      : 165,0094ms
moved types parse time: 169ms
candidates parse time : 4ms
C# parse time         : 723ms
candidates check time : 130ms
console write time    : 1ms

[api-updater (non-obsolete-error-filter)] 12.09.2021 12:19:12 : Starting C:/Program Files/Unity/2020.3.16f1/Editor/Data/Tools/ScriptUpdater/APIUpdater.NonObsoleteApiUpdaterDetector.exe
[api-updater (non-obsolete-error-filter)] 
----------------------------------
jit/startup time      : 211,0121ms
moved types parse time: 167ms
candidates parse time : 3ms
C# parse time         : 616ms
candidates check time : 126ms
console write time    : 1ms

[api-updater (non-obsolete-error-filter)] 12.09.2021 12:20:50 : Starting C:/Program Files/Unity/2020.3.16f1/Editor/Data/Tools/ScriptUpdater/APIUpdater.NonObsoleteApiUpdaterDetector.exe
[api-updater (non-obsolete-error-filter)] 
----------------------------------
jit/startup time      : 187,0107ms
moved types parse time: 172ms
candidates parse time : 3ms
C# parse time         : 611ms
candidates check time : 140ms
console write time    : 2ms

[api-updater (non-obsolete-error-filter)] 12.09.2021 12:21:02 : Starting C:/Program Files/Unity/2020.3.16f1/Editor/Data/Tools/ScriptUpdater/APIUpdater.NonObsoleteApiUpdaterDetector.exe
[api-updater (non-obsolete-error-filter)] 
----------------------------------
jit/startup time      : 168,0096ms
moved types parse time: 170ms
candidates parse time : 3ms
C# parse time         : 601ms
candidates check time : 125ms
console write time    : 1ms

[api-updater (non-obsolete-error-filter)] 12.09.2021 12:21:36 : Starting C:/Program Files/Unity/2020.3.16f1/Editor/Data/Tools/ScriptUpdater/APIUpdater.NonObsoleteApiUpdaterDetector.exe
[api-updater (non-obsolete-error-filter)] 
----------------------------------
jit/startup time      : 165,0094ms
moved types parse time: 173ms
candidates parse time : 3ms
C# parse time         : 612ms
candidates check time : 122ms
console write time    : 1ms

[api-updater (non-obsolete-error-filter)] 12.09.2021 19:50:04 : Starting C:/Program Files/Unity/2020.3.16f1/Editor/Data/Tools/ScriptUpdater/APIUpdater.NonObsoleteApiUpdaterDetector.exe
[api-updater (non-obsolete-error-filter)] 
----------------------------------
jit/startup time      : 259,0148ms
moved types parse time: 170ms
candidates parse time : 3ms
C# parse time         : 712ms
candidates check time : 141ms
console write time    : 1ms

[api-updater (non-obsolete-error-filter)] 16.09.2021 15:53:08 : Starting E:/Unity/Editor/Data/Tools/ScriptUpdater/APIUpdater.NonObsoleteApiUpdaterDetector.exe
[api-updater (non-obsolete-error-filter)] 
----------------------------------
jit/startup time      : 820,0164ms
moved types parse time: 101ms
candidates parse time : 1ms
C# parse time         : 595ms
candidates check time : 58ms
console write time    : 0ms

[api-updater (non-obsolete-error-filter)] 20.09.2021 15:48:38 : Starting E:/Unity/Editor/Data/Tools/ScriptUpdater/APIUpdater.NonObsoleteApiUpdaterDetector.exe
[api-updater (non-obsolete-error-filter)] 
----------------------------------
jit/startup time      : 730ms
moved types parse time: 144ms
candidates parse time : 14ms
C# parse time         : 643ms
candidates check time : 39ms
console write time    : 0ms

[api-updater (non-obsolete-error-filter)] 21.09.2021 16:15:22 : Starting E:/Unity/Editor/Data/Tools/ScriptUpdater/APIUpdater.NonObsoleteApiUpdaterDetector.exe
[api-updater (non-obsolete-error-filter)] 
----------------------------------
jit/startup time      : 800,008ms
moved types parse time: 107ms
candidates parse time : 1ms
C# parse time         : 706ms
candidates check time : 101ms
console write time    : 1ms

[api-updater (non-obsolete-error-filter)] 21.09.2021 16:15:25 : Starting E:/Unity/Editor/Data/Tools/ScriptUpdater/APIUpdater.NonObsoleteApiUpdaterDetector.exe
[api-updater (non-obsolete-error-filter)] 
----------------------------------
jit/startup time      : 87,0087ms
moved types parse time: 75ms
candidates parse time : 5ms
C# parse time         : 195ms
candidates check time : 77ms
console write time    : 0ms

[api-updater (non-obsolete-error-filter)] 21.09.2021 16:15:28 : Starting E:/Unity/Editor/Data/Tools/ScriptUpdater/APIUpdater.NonObsoleteApiUpdaterDetector.exe
[api-updater (non-obsolete-error-filter)] 
----------------------------------
jit/startup time      : 122,0122ms
moved types parse time: 69ms
candidates parse time : 1ms
C# parse time         : 206ms
candidates check time : 57ms
console write time    : 0ms

[api-updater (non-obsolete-error-filter)] 21.09.2021 16:15:44 : Starting E:/Unity/Editor/Data/Tools/ScriptUpdater/APIUpdater.NonObsoleteApiUpdaterDetector.exe
[api-updater (non-obsolete-error-filter)] 
----------------------------------
jit/startup time      : 92,0092ms
moved types parse time: 96ms
candidates parse time : 1ms
C# parse time         : 230ms
candidates check time : 59ms
console write time    : 0ms

[api-updater (non-obsolete-error-filter)] 21.09.2021 16:15:52 : Starting E:/Unity/Editor/Data/Tools/ScriptUpdater/APIUpdater.NonObsoleteApiUpdaterDetector.exe
[api-updater (non-obsolete-error-filter)] 
----------------------------------
jit/startup time      : 135,0135ms
moved types parse time: 73ms
candidates parse time : 5ms
C# parse time         : 196ms
candidates check time : 61ms
console write time    : 0ms

[api-updater (non-obsolete-error-filter)] 21.09.2021 16:16:27 : Starting E:/Unity/Editor/Data/Tools/ScriptUpdater/APIUpdater.NonObsoleteApiUpdaterDetector.exe
[api-updater (non-obsolete-error-filter)] 
----------------------------------
jit/startup time      : 91,0091ms
moved types parse time: 78ms
candidates parse time : 1ms
C# parse time         : 272ms
candidates check time : 63ms
console write time    : 0ms

[api-updater (non-obsolete-error-filter)] 21.09.2021 17:07:30 : Starting E:/Unity/Editor/Data/Tools/ScriptUpdater/APIUpdater.NonObsoleteApiUpdaterDetector.exe
[api-updater (non-obsolete-error-filter)] 
----------------------------------
jit/startup time      : 109,2007ms
moved types parse time: 82ms
candidates parse time : 1ms
C# parse time         : 239ms
candidates check time : 38ms
console write time    : 0ms

[api-updater (non-obsolete-error-filter)] 22.09.2021 12:37:14 : Starting E:/Unity/Editor/Data/Tools/ScriptUpdater/APIUpdater.NonObsoleteApiUpdaterDetector.exe
[api-updater (non-obsolete-error-filter)] 
----------------------------------
jit/startup time      : 700ms
moved types parse time: 99ms
candidates parse time : 1ms
C# parse time         : 591ms
candidates check time : 62ms
console write time    : 23ms

[api-updater (non-obsolete-error-filter)] 22.09.2021 12:37:35 : Starting E:/Unity/Editor/Data/Tools/ScriptUpdater/APIUpdater.NonObsoleteApiUpdaterDetector.exe
[api-updater (non-obsolete-error-filter)] 
----------------------------------
jit/startup time      : 80ms
moved types parse time: 81ms
candidates parse time : 4ms
C# parse time         : 240ms
candidates check time : 50ms
console write time    : 0ms

[api-updater (non-obsolete-error-filter)] 23.09.2021 17:30:53 : Starting E:/Unity/Editor/Data/Tools/ScriptUpdater/APIUpdater.NonObsoleteApiUpdaterDetector.exe
[api-updater (non-obsolete-error-filter)] 
----------------------------------
jit/startup time      : 940,0094ms
moved types parse time: 139ms
candidates parse time : 1ms
C# parse time         : 593ms
candidates check time : 34ms
console write time    : 1ms

[api-updater (non-obsolete-error-filter)] 24.09.2021 11:44:18 : Starting E:/Unity/Editor/Data/Tools/ScriptUpdater/APIUpdater.NonObsoleteApiUpdaterDetector.exe
[api-updater (non-obsolete-error-filter)] 
----------------------------------
jit/startup time      : 729,0169ms
moved types parse time: 416ms
candidates parse time : 1ms
C# parse time         : 608ms
candidates check time : 51ms
console write time    : 1ms

[api-updater (non-obsolete-error-filter)] 24.09.2021 11:52:57 : Starting E:/Unity/Editor/Data/Tools/ScriptUpdater/APIUpdater.NonObsoleteApiUpdaterDetector.exe
[api-updater (non-obsolete-error-filter)] 
----------------------------------
jit/startup time      : 80,0008ms
moved types parse time: 81ms
candidates parse time : 1ms
C# parse time         : 253ms
candidates check time : 55ms
console write time    : 0ms

[api-updater (non-obsolete-error-filter)] 29.09.2021 12:17:06 : Starting E:/Unity/Editor/Data/Tools/ScriptUpdater/APIUpdater.NonObsoleteApiUpdaterDetector.exe
[api-updater (non-obsolete-error-filter)] 
----------------------------------
jit/startup time      : 760,076ms
moved types parse time: 145ms
candidates parse time : 1ms
C# parse time         : 509ms
candidates check time : 44ms
console write time    : 1ms

[api-updater (non-obsolete-error-filter)] 29.09.2021 17:05:55 : Starting E:/Unity/Editor/Data/Tools/ScriptUpdater/APIUpdater.NonObsoleteApiUpdaterDetector.exe
[api-updater (non-obsolete-error-filter)] 
----------------------------------
jit/startup time      : 640,0064ms
moved types parse time: 100ms
candidates parse time : 1ms
C# parse time         : 577ms
candidates check time : 75ms
console write time    : 0ms

[api-updater (non-obsolete-error-filter)] 29.09.2021 17:06:03 : Starting E:/Unity/Editor/Data/Tools/ScriptUpdater/APIUpdater.NonObsoleteApiUpdaterDetector.exe
[api-updater (non-obsolete-error-filter)] 
----------------------------------
jit/startup time      : 81,0081ms
moved types parse time: 90ms
candidates parse time : 1ms
C# parse time         : 239ms
candidates check time : 45ms
console write time    : 0ms

[api-updater (non-obsolete-error-filter)] 01.10.2021 15:52:01 : Starting E:/Unity/Editor/Data/Tools/ScriptUpdater/APIUpdater.NonObsoleteApiUpdaterDetector.exe
[api-updater (non-obsolete-error-filter)] 
----------------------------------
jit/startup time      : 835,5025ms
moved types parse time: 127ms
candidates parse time : 1ms
C# parse time         : 574ms
candidates check time : 68ms
console write time    : 6ms

[api-updater (non-obsolete-error-filter)] 02.10.2021 14:05:06 : Starting C:/Program Files/Unity/2020.3.16f1/Editor/Data/Tools/ScriptUpdater/APIUpdater.NonObsoleteApiUpdaterDetector.exe
[api-updater (non-obsolete-error-filter)] 
----------------------------------
jit/startup time      : 330,0005ms
moved types parse time: 217ms
candidates parse time : 4ms
C# parse time         : 785ms
candidates check time : 146ms
console write time    : 2ms

[api-updater (non-obsolete-error-filter)] 02.10.2021 18:23:44 : Starting C:/Program Files/Unity/2020.3.16f1/Editor/Data/Tools/ScriptUpdater/APIUpdater.NonObsoleteApiUpdaterDetector.exe
[api-updater (non-obsolete-error-filter)] 
----------------------------------
jit/startup time      : 325,0186ms
moved types parse time: 196ms
candidates parse time : 3ms
C# parse time         : 780ms
candidates check time : 151ms
console write time    : 2ms

[api-updater (non-obsolete-error-filter)] 07.10.2021 11:12:26 : Starting E:/Unity/Editor/Data/Tools/ScriptUpdater/APIUpdater.NonObsoleteApiUpdaterDetector.exe
[api-updater (non-obsolete-error-filter)] 
----------------------------------
jit/startup time      : 684ms
moved types parse time: 109ms
candidates parse time : 1ms
C# parse time         : 553ms
candidates check time : 58ms
console write time    : 1ms

[api-updater (non-obsolete-error-filter)] 07.10.2021 11:12:32 : Starting E:/Unity/Editor/Data/Tools/ScriptUpdater/APIUpdater.NonObsoleteApiUpdaterDetector.exe
[api-updater (non-obsolete-error-filter)] 
----------------------------------
jit/startup time      : 80ms
moved types parse time: 82ms
candidates parse time : 1ms
C# parse time         : 263ms
candidates check time : 56ms
console write time    : 0ms

[api-updater (non-obsolete-error-filter)] 07.10.2021 11:27:55 : Starting E:/Unity/Editor/Data/Tools/ScriptUpdater/APIUpdater.NonObsoleteApiUpdaterDetector.exe
[api-updater (non-obsolete-error-filter)] 
----------------------------------
jit/startup time      : 80,0048ms
moved types parse time: 61ms
candidates parse time : 1ms
C# parse time         : 193ms
candidates check time : 39ms
console write time    : 0ms

[api-updater (non-obsolete-error-filter)] 07.10.2021 11:28:06 : Starting E:/Unity/Editor/Data/Tools/ScriptUpdater/APIUpdater.NonObsoleteApiUpdaterDetector.exe
[api-updater (non-obsolete-error-filter)] 
----------------------------------
jit/startup time      : 134,011ms
moved types parse time: 108ms
candidates parse time : 2ms
C# parse time         : 249ms
candidates check time : 59ms
console write time    : 0ms

[api-updater (non-obsolete-error-filter)] 07.10.2021 11:40:29 : Starting E:/Unity/Editor/Data/Tools/ScriptUpdater/APIUpdater.NonObsoleteApiUpdaterDetector.exe
[api-updater (non-obsolete-error-filter)] 
----------------------------------
jit/startup time      : 102ms
moved types parse time: 67ms
candidates parse time : 1ms
C# parse time         : 199ms
candidates check time : 42ms
console write time    : 0ms

[api-updater (non-obsolete-error-filter)] 07.10.2021 17:41:39 : Starting E:/Unity/Editor/Data/Tools/ScriptUpdater/APIUpdater.NonObsoleteApiUpdaterDetector.exe
[api-updater (non-obsolete-error-filter)] 
----------------------------------
jit/startup time      : 826ms
moved types parse time: 103ms
candidates parse time : 1ms
C# parse time         : 649ms
candidates check time : 55ms
console write time    : 0ms

[api-updater (non-obsolete-error-filter)] 07.10.2021 17:43:01 : Starting E:/Unity/Editor/Data/Tools/ScriptUpdater/APIUpdater.NonObsoleteApiUpdaterDetector.exe
[api-updater (non-obsolete-error-filter)] 
----------------------------------
jit/startup time      : 110ms
moved types parse time: 74ms
candidates parse time : 1ms
C# parse time         : 239ms
candidates check time : 53ms
console write time    : 0ms

[api-updater (non-obsolete-error-filter)] 07.10.2021 17:44:01 : Starting E:/Unity/Editor/Data/Tools/ScriptUpdater/APIUpdater.NonObsoleteApiUpdaterDetector.exe
[api-updater (non-obsolete-error-filter)] 
----------------------------------
jit/startup time      : 111ms
moved types parse time: 91ms
candidates parse time : 1ms
C# parse time         : 180ms
candidates check time : 45ms
console write time    : 0ms

[api-updater (non-obsolete-error-filter)] 19.10.2021 13:00:47 : Starting C:/Program Files/Unity/2020.3.16f1/Editor/Data/Tools/ScriptUpdater/APIUpdater.NonObsoleteApiUpdaterDetector.exe
[api-updater (non-obsolete-error-filter)] 
----------------------------------
jit/startup time      : 294,0168ms
moved types parse time: 187ms
candidates parse time : 3ms
C# parse time         : 779ms
candidates check time : 144ms
console write time    : 2ms

[api-updater (non-obsolete-error-filter)] 19.10.2021 13:03:58 : Starting C:/Program Files/Unity/2020.3.16f1/Editor/Data/Tools/ScriptUpdater/APIUpdater.NonObsoleteApiUpdaterDetector.exe
[api-updater (non-obsolete-error-filter)] 
----------------------------------
jit/startup time      : 148,0085ms
moved types parse time: 167ms
candidates parse time : 3ms
C# parse time         : 632ms
candidates check time : 145ms
console write time    : 1ms

[api-updater (non-obsolete-error-filter)] 28.10.2021 9:32:23 : Starting E:/Unity/Editor/Data/Tools/ScriptUpdater/APIUpdater.NonObsoleteApiUpdaterDetector.exe
[api-updater (non-obsolete-error-filter)] Exception caught while loading types from C:\Users\vapo\ProjectsUnity\mathduel\Library\ScriptAssemblies\Unity.TextMeshPro.Editor.dll (some types may not be loaded)
	Exception of type 'System.Reflection.ReflectionTypeLoadException' was thrown.
	  at (wrapper managed-to-native) System.Reflection.Assembly.GetTypes(System.Reflection.Assembly,bool)
  at System.Reflection.Assembly.GetTypes () [0x00000] in <695d1cc93cca45069c528c15c9fdd749>:0 
  at APIUpdater.NonObsoleteApiUpdaterDetector.ExtraInfoParser+<LoadTypesWithMovedFromAttributeAsync>d__3.MoveNext () [0x000c8] in <68bff7873e0e4aa69a14dfc30bebbe3e>:0 
	Could not load file or assembly 'UnityEditor.CoreModule, Version=0.0.0.0, Culture=neutral, PublicKeyToken=null' or one of its dependencies.

[api-updater (non-obsolete-error-filter)] 
----------------------------------
jit/startup time      : 149,9955ms
moved types parse time: 91ms
candidates parse time : 6ms
C# parse time         : 565ms
candidates check time : 48ms
console write time    : 0ms

[api-updater (non-obsolete-error-filter)] 28.10.2021 16:13:38 : Starting E:/Unity/Editor/Data/Tools/ScriptUpdater/APIUpdater.NonObsoleteApiUpdaterDetector.exe
[api-updater (non-obsolete-error-filter)] 
----------------------------------
jit/startup time      : 652,8694ms
moved types parse time: 108ms
candidates parse time : 1ms
C# parse time         : 618ms
candidates check time : 61ms
console write time    : 0ms

[api-updater (non-obsolete-error-filter)] 28.10.2021 16:14:13 : Starting E:/Unity/Editor/Data/Tools/ScriptUpdater/APIUpdater.NonObsoleteApiUpdaterDetector.exe
[api-updater (non-obsolete-error-filter)] 
----------------------------------
jit/startup time      : 112,9774ms
moved types parse time: 85ms
candidates parse time : 2ms
C# parse time         : 246ms
candidates check time : 61ms
console write time    : 0ms

[api-updater (non-obsolete-error-filter)] 28.10.2021 16:14:26 : Starting E:/Unity/Editor/Data/Tools/ScriptUpdater/APIUpdater.NonObsoleteApiUpdaterDetector.exe
[api-updater (non-obsolete-error-filter)] 
----------------------------------
jit/startup time      : 132,9734ms
moved types parse time: 164ms
candidates parse time : 1ms
C# parse time         : 373ms
candidates check time : 74ms
console write time    : 0ms

[api-updater (non-obsolete-error-filter)] 28.10.2021 16:16:28 : Starting E:/Unity/Editor/Data/Tools/ScriptUpdater/APIUpdater.NonObsoleteApiUpdaterDetector.exe
[api-updater (non-obsolete-error-filter)] 
----------------------------------
jit/startup time      : 96,9806ms
moved types parse time: 75ms
candidates parse time : 4ms
C# parse time         : 189ms
candidates check time : 41ms
console write time    : 0ms

[api-updater (non-obsolete-error-filter)] 28.10.2021 16:16:35 : Starting E:/Unity/Editor/Data/Tools/ScriptUpdater/APIUpdater.NonObsoleteApiUpdaterDetector.exe
[api-updater (non-obsolete-error-filter)] 
----------------------------------
jit/startup time      : 93,9812ms
moved types parse time: 106ms
candidates parse time : 1ms
C# parse time         : 429ms
candidates check time : 84ms
console write time    : 0ms

[api-updater (non-obsolete-error-filter)] 01.11.2021 15:46:15 : Starting E:/Unity/Editor/Data/Tools/ScriptUpdater/APIUpdater.NonObsoleteApiUpdaterDetector.exe
[api-updater (non-obsolete-error-filter)] 
----------------------------------
jit/startup time      : 540,0054ms
moved types parse time: 120ms
candidates parse time : 1ms
C# parse time         : 536ms
candidates check time : 67ms
console write time    : 2ms

[api-updater (non-obsolete-error-filter)] 01.11.2021 15:47:00 : Starting E:/Unity/Editor/Data/Tools/ScriptUpdater/APIUpdater.NonObsoleteApiUpdaterDetector.exe
[api-updater (non-obsolete-error-filter)] 
----------------------------------
jit/startup time      : 80,0008ms
moved types parse time: 60ms
candidates parse time : 4ms
C# parse time         : 235ms
candidates check time : 33ms
console write time    : 0ms

