%YAML 1.1
%TAG !u! tag:unity3d.com,2011:
--- !u!162 &1
EditorUserSettings:
  m_ObjectHideFlags: 0
  serializedVersion: 4
  m_ConfigSettings:
    RecentlyUsedScenePath-0:
      value: 22424703114646680e0b0227036c6c111b07142f1f2b233e2867083debf42d
      flags: 0
    RecentlyUsedScenePath-1:
      value: 224247031146466b0501182d1e6c6f181903172419262f2434071827f5ef2633ebe931a6c33f32332a4dcb390931202ce60f1b04ff0f1944220df80014ec5f3714c817e409dc1a0ec41018dd8031dee1d7cfe7e9dde5e296cbd1a9e6ed
      flags: 0
    RecentlyUsedScenePath-2:
      value: 224247031146466b0501182d1e6c6f181903172419262f2434071827f5ef2633ebe931a6c33f32332a4dcb390931202ce60f1b04ff0f1944220df80014ec5f3714c817e409dc1a0ec41018dd803ad0eed0e5d7efd6eea9cdd0d6b4eb
      flags: 0
    RecentlyUsedScenePath-3:
      value: 22424703114646680e0b0227036c68111f0311242b1a293f2067083debf42d
      flags: 0
    RecentlyUsedScenePath-4:
      value: 22424703114646680e0b0227036c78111b12563f22213229
      flags: 0
    RecentlyUsedScenePath-5:
      value: 22424703114646680e0b0227036c78111b12372420212b35633c133af6f9
      flags: 0
    RecentlyUsedScenePath-6:
      value: 22424703114646680e0b0227036c78111b12372420212835633c133af6f9
      flags: 0
    RecentlyUsedScenePath-7:
      value: 22424703114646680e0b0227036c78111b12372c2a242f3e2867083debf42d
      flags: 0
    RecentlyUsedScenePath-8:
      value: 22424703114646680e0b0227036c72111f19352f223d68252320092a
      flags: 0
    UnityRemoteDevice:
      value: 2d5e5a03
      flags: 0
    vcSharedLogLevel:
      value: 0d5e400f0650
      flags: 0
  m_VCAutomaticAdd: 1
  m_VCDebugCom: 0
  m_VCDebugCmd: 0
  m_VCDebugOut: 0
  m_SemanticMergeMode: 2
  m_VCShowFailedCheckout: 1
  m_VCOverwriteFailedCheckoutAssets: 1
  m_VCProjectOverlayIcons: 1
  m_VCHierarchyOverlayIcons: 1
  m_VCOtherOverlayIcons: 1
  m_VCAllowAsyncUpdate: 1
